%YAML 1.1
%TAG !u! tag:unity3d.com,2011:
--- !u!78 &1
TagManager:
  serializedVersion: 2
  tags: []
  layers:
  - Default
  - TransparentFX
  - Ignore Raycast
  - 
  - Water
  - UI
  - 
  - 
  - Player
  - 
  - 
  - 
  - 
  - 
  - 
  - 
  - 
  - 
  - 
  - 
  - 
  - 
  - 
  - 
  - 
  - 
  - 
  - 
  - 
  - 
  - 
  - 
  m_SortingLayers:
  - name: BackGround
    uniqueID: 1043068691
    locked: 0
  - name: Default
    uniqueID: 0
    locked: 0
  - name: floor
    uniqueID: 3315454067
    locked: 0
  - name: Player
    uniqueID: 2779426253
    locked: 0
